{
	"providers": {
		"awscloudformation": {
			"AuthRoleName": "mytest-20181202143855-authRole",
			"UnauthRoleArn": "arn:aws:iam::435044949037:role/mytest-20181202143855-unauthRole",
			"AuthRoleArn": "arn:aws:iam::435044949037:role/mytest-20181202143855-authRole",
			"Region": "ap-southeast-1",
			"DeploymentBucketName": "mytest-20181202143855-deployment",
			"UnauthRoleName": "mytest-20181202143855-unauthRole",
			"StackName": "mytest-20181202143855",
			"StackId": "arn:aws:cloudformation:ap-southeast-1:435044949037:stack/mytest-20181202143855/51863760-f605-11e8-9eab-024d84896d6a"
		}
	},
	"hosting": {
		"S3AndCloudFront": {
			"service": "S3AndCloudFront",
			"providerPlugin": "awscloudformation",
			"providerMetadata": {
				"s3TemplateURL": "https://s3.amazonaws.com/mytest-20181202143855-deployment/amplify-cfn-templates/hosting/template.json",
				"logicalId": "hostingS3AndCloudFront"
			},
			"lastPushTimeStamp": "2018-12-02T07:45:57.616Z",
			"output": {
				"S3BucketSecureURL": "https://mytest-20181202144247--hostingbucket.s3.amazonaws.com",
				"WebsiteURL": "http://mytest-20181202144247--hostingbucket.s3-website-ap-southeast-1.amazonaws.com",
				"Region": "ap-southeast-1",
				"HostingBucketName": "mytest-20181202144247--hostingbucket"
			},
			"lastPushDirHash": "u0RVtPWdlcQFP+JSs/9h8zjgaoI="
		}
	}
}